*** Life<FredkinCell> 18x6 ***

Generation = 0, Population = 24.
00-00-
-0-0--
-----0
---0--
------
---0--
---0-0
----0-
------
----0-
-00--0
------
------
------
--00-0
0---0-
-0----
0---0-

Generation = 3, Population = 65.
-0-0--
-30-02
1-0021
00-0-2
-001--
01-3-2
010-00
-0--10
01--0-
0-201-
-11011
00--1-
----0-
1--010
201320
0-0-1-
00-0--
-00--0

Generation = 6, Population = 47.
-1-1-0
----12
221-52
-10-2-
-10221
0416-3
------
------
0-----
31-140
--412-
3-111-
---0-0
----1-
--2-2-
------
0-1--0
0-1-0-

*** Life<FredkinCell> 18x15 ***

Generation = 0, Population = 111.
00-----00-0---0
-000000-00---0-
--0----0-0-----
---0-0--000-000
0--0----00--00-
000--0----0---0
---------0-0-0-
--0-00--0-----0
-0--------00---
0-0----0--000-0
-0-0-00000---0-
--0--0--0-000--
---0-0--0-0-000
0---0--0---0000
00-0---0-00-0--
0---0--0-0-0--0
000--0-00-0----
-0--0-0-0-00-0-

Generation = 2, Population = 144.
-0-1-10--------
0020-----0--100
00-110----00101
10--00---02--22
20---00----1-01
---0---0110-110
11-0---00-100--
000022----10--0
-0---101-1-000-
--0--1--0--2210
---0000--210100
0-01--00010-0-1
10-0---0--2022-
--0-0-1201-2-20
--------0020-0-
-1---0--1-00-1-
0221101-0------
02010-012--20-1

*** Life<FredkinCell> 19x12 ***

Generation = 0, Population = 35.
0--------0--
------------
0-0------0-0
---0--------
------------
--0--------0
--0---------
----0-------
---0--------
-0--000---0-
------------
---0-0------
---00-0-0-0-
---00-0-----
0--00--0----
------0-----
------0-----
----0-------
0-----------

Generation = 3, Population = 103.
-0-0--0-0---
------------
-010--0-0--0
01-0--00-002
1-00-0--01--
-012----01-1
1-1------00-
-1----0--011
0------0--00
---11-32--0-
--0--02---20
000100-1-0-0
112-0--1-010
012---1-2---
1-011-2-2-10
0002--30--0-
---1---2-0--
-01---000---
-010-0-0----

*** Life<FredkinCell> 3x21 ***

Generation = 0, Population = 27.
---000---0--00-0-0-0-
00--0-0-----0--0-00-0
--0--0----0--00-000-0

Generation = 4, Population = 26.
01---2-1---1---202---
41--21----30-10---032
30--------2-21--22---

*** Life<FredkinCell> 27x15 ***

Generation = 0, Population = 147.
0-------0---00-
00---0000-00---
-000-----0-0-0-
-0--0---0-000-0
-----0----0----
-0--0----0-0--0
0-0-0--0----0--
0------0----0-0
-00------0-00-0
-0-----00--000-
0-0----00----00
00--0--0----0-0
0-00-00--0-0-0-
-------0-------
-00-0--00----0-
-0---0-0000-00-
0--00-00-0----0
0000-0------0--
---0-----00-0--
--0-00-----0---
------00-000-00
0-0---00---0--0
0----0--0-0--00
-0-000---0---0-
--0---------0--
---00000--0--0-
----0-------000

Generation = 1, Population = 194.
1----00-100-110
---001---01----
-1-1-0000---0--
01-----0-0-110-
----0-0-0-100--
---01--00-0--0-
10--100100--10-
1---0-0100----1
--10--------101
-10---0---0-1-0
1--00-01-0-00--
110----1-0----1
101101100---0--
00-000-1-0-0---
0-1---01--0--10
-1-00-01111-1--
10--1-1-01-----
---10--0--00100
0001----011010-
-0-011-0--01-00
0---0----1-1-1-
1--0-----00100-
1-00-1---0--0--
--01--0------1-
---0--00-000-0-
---11--100-001-
----1-00--00111

Generation = 2, Population = 218.
-0-0--1-21--2-1
000--2000--0-00
-2-20--1100-1--
1-000001--0--10
00--1---10-1-0-
00012-0-101-010
-10-2-1----02--
2-0-10-21-0--02
0--1---00000--2
-2-0001----0-01
20011----101-0-
22-0-00-0100-0-
2-2212--10---00
1---1---0-0--00
1--0---2-01--21
0201--1222----0
2-00--2---00-00
-----0--00-1211
11-200-01---210
010-22---0-2011
1--01--002--0--
-0-1-0--01-21-0
2--1----01--10-
00-20-1---00-20
-----0--0---0-0
--0--002---112-
----2-1---11222

Generation = 3, Population = 209.
-10-0-20-20--12
1-10-31110---1-
03---0022--0-0-
2-11----001---1
1-00--------0-0
--1-3-1--12--21
1-10-02--001-0-
3010-10--010-1-
1--20---1-1-10-
03011-2-0-0----
-----0----12---
3-----1---1----
-0332--02-0001-
-0002---1-10011
---1---3---00-2
1-1200-3--10-0-
30--1-3--11-0-1
-00--1---10-3-2
--0311-1-1-03-1
121-3-0-01-3-2-
20---0011301---
1---0-0-12-320-
300--100---0--0
-1--10-0--11---
0000-10--0001-1
-0-1--13------0
--00-02--022333

Generation = 4, Population = 192.
-2-0-0--2-102-3
2--10---2--00--
140-0-1330---1-
-1--000---2-1-2
2-1---0-1--1-0-
-0---0201------
212-2-3101-----
4-211--2----0-2
-013---020-02-2
---2-0--1---10-
-001--0-01230--
--000---01-000-
--44-2-1--111--
1-1--0-12----2-
101-0004--11--3
222311142-----0
--0-2---0-20102
----02-002-1---
111-2-0-1-1--12
-3-04-1--20-0--
3---11-----2---
-001------04-1-
-1110-1--1-----
0-0-21-10--2---
1---0--001112-2
-1--10240------
--1--1--01-----

Generation = 5, Population = 209.
---10-203-21---
30----1-------0
-512-0--41-01--
2211--1----1---
---010-020--0--
011--1-12--0-2-
-2-030--120-2-0
5-32-1--1---1-3
-124-00-31-1303
--0------00021-
2112----12-410-
--1-1-1----1-11
205-23-22-22-1-
20----0230-----
2121--1500220-4
-3---225-2--1--
3-10-030-131---
00-11301-3-2---
2223-1112-2--23
14115220-3-3--1
-000-2---303-1-
--1-000---1---0
---2-1-------0-
1112321--0-3--0
2-00-1-1---23--
---1-1-510011-0
---0-2---22----

Generation = 6, Population = 196.
12021---4-322-3
4---0-2--01-01-
162---1352--210
3322-0----221--
--1---0-3111---
12213---31-----
23---13-2-11301
---31--2-01--1-
-2----1---1--1-
03-2-02-11---2-
3--3--012-2521-
-2-020---1--022
-1---4---03--2-
31102-----1-021
---20-2-1------
242-1--62-10200
4-2-21-1-2-----
1--2---204-3312
3-34-2--3--033-
------3-04-4022
------011-1---0
--2-1-10--2--1-
3113--1--1001-0
--2---2-0--4---
30-10-02---3-0-
0--------112---
--11-320----3-3

*** Life<FredkinCell> 19x21 ***

Generation = 0, Population = 49.
---------0----0----0-
-------------------0-
----0--0-----00--0---
---------0--0-----0--
---------------0-----
------0----0--0-----0
------0-0--0---------
------0--------------
---0----00--------0--
-----0-0--------0----
0--------------------
-------0000------0--0
----0----------------
---0---0---------0---
----------------0----
------------0--------
---------0-----0-----
-0---------0---------
-0-------0-0------0--

Generation = 2, Population = 135.
----0----0-001--0--2-
---------1--0----11--
--0--11----00-211----
------01--1-----0--1-
----0-100--1--0------
----0-2-1----1--0---0
---00-0---1--0-0--0--
----01210--1--0-0---0
00---1-02-1-----1---0
---1-00-0-0---0--11-0
0-000---11--------0--
---0--1200210--010110
0-0---0---------0----
-0-----01-0-0--0-0-00
----0----0----01--0--
-0-0---0--01--0--0---
-1-----0-0---0--100--
---0-----0--10-------
-2-0---0-0---0-00-0-0

Generation = 4, Population = 121.
----01-0--0---1--002-
------1----1--11----0
0--1--1---0--14--011-
-----02-0----00-2---1
---1----0--1--0---0--
--0--0---------0---1-
0-1-------1-1210-1---
--0----30---1----11-2
-----1-0----0001----0
-1----21-1--0-0--3---
--2-2-0-3--1----1----
---201-----1--1-3-3--
0--0-----------1--1--
-0-0-0-------1--1----
00-------0-11-----0-1
-------2-12-----02--0
-3--00---2---2----21-
---2-0-----2---1-1---
-2-----0-2---20-2---0

Generation = 6, Population = 183.
0-0-2---12---3-0-2-40
----103--2--103--22--
0111---11-0---------1
--0012-12-2-1--02--1-
-001-0---11--0-0--001
1-20103-----1-1-110--
--1211-1--1-1-1003011
112-0--3----1---213--
1--0111032--------1-2
--0------12----0-3-02
--21-1-1311-0-------0
-00-------------505-1
----001-00--01---13--
-2-20----10----1-1--2
-01-01-1--13--010-00-
-1---1-203--111-24-02
1-1---12---11211-24-0
-1-2-2----1----11--11
---20----2--1--2--01-

*** Life<FredkinCell> 3x9 ***

Generation = 0, Population = 2.
--0------
-0-------
---------

Generation = 4, Population = 4.
0-----0--
-0---0---
---------

*** Life<FredkinCell> 1x9 ***

Generation = 0, Population = 1.
-------0-

Generation = 5, Population = 4.
--0-0-0-0

*** Life<FredkinCell> 22x14 ***

Generation = 0, Population = 120.
--0-0---00---0
-----0--0-00--
00-00--00-00--
-0-----0-00-00
--0-000--0----
0---0-0000-00-
0---0---0000--
------00------
00--0-0-00--00
0-00------0000
000--00----0-0
0----0---0---0
-----0000-0--0
00--000--0-0--
0--0-00-------
0----0-0--00--
0----0--------
0--0--00-0000-
0-0000-----0--
-0----00-0---0
---0---0-00---
0--------0--0-

Generation = 3, Population = 149.
02--100-----0-
------2---000-
----1120-0----
-1--10-12-00--
211---12--02-0
-200121-3-2-30
--------0----0
001--21300--0-
-3--0--2131-0-
1-111--1-03333
3---2-1-10132-
-1002-----10-0
0-1-13--1-1-21
-1----3110-000
0-2------0-001
-2--------3-01
1-0221---0---0
---11---------
32-1----001--2
--0-21-0-31201
222-2--31-1020
----0---0-1-12

Generation = 6, Population = 146.
1500-0-0-3213-
0301-----1-1--
--04--5-21--2-
0-03-00-30-132
-12110------2-
--1-2-2--3--43
3-1-3-0113----
3-4--3-600--11
---1-1-543--01
---2---2--3636
--10311----4--
-2-0-1-0014-21
-1-214------32
-1-0-16--0--11
------02--1-12
0-0--0---2---2
----5-2----1-3
0--22133030---
6-32----13-2-5
-03--4-1--1---
-3-0-1-31---33
01---2---2----

*** Life<FredkinCell> 8x10 ***

Generation = 0, Population = 26.
----0--000
---0----0-
000---0---
--00--0---
--0-----0-
--00--0--0
0----0----
00000-----

Generation = 1, Population = 34.
-----00111
00----0-1-
1--0-0100-
0-1100100-
-0-0---0--
00-10--0--
1--------0
----1-----

Generation = 2, Population = 41.
00--011-22
-100-0----
---10--110
102--12--0
010-00----
----100100
2--0---00-
0--0-0---0

Generation = 3, Population = 39.
1---122-33
-----1-0--
1-0-10-2--
-1--0-3--1
-2---1000-
-00--1-211
3001-----0
1001--00--

Generation = 4, Population = 44.
-0-0233144
--0-0-01-0
-0----1310
-2-11-40--
0-----11-0
-1--120-2-
----000--1
-11-101100

Generation = 5, Population = 43.
1-013-42--
-1-01112--
11-1-02---
-3-22-51--
-2-0--2-0-
--01-312-1
--011-1-02
122--12---

Generation = 6, Population = 40.
-012-3--4-
020122--1-
22----33--
---33162--
030-------
---214-3-2
3-122--01-
2----2-100

*** Life<FredkinCell> 23x21 ***

Generation = 0, Population = 31.
---------------------
---------------------
---------0---------00
---------------------
---------------0-----
0-----0--------------
--0------------------
00--0----------------
-------0-----0-------
---------------------
---------------------
--0-------00---------
---------------------
---0---------------0-
---0---00-----0-0----
------------------0--
---------------0-----
---0-00--------------
--00-----------------
---------------------
--------------------0
---------------------
------------0--------

Generation = 4, Population = 106.
---------0-----0---22
0-----0--------------
--0--0-------0-00-31-
01--0----------------
-------0---0-0-----2-
----1-----0----------
0-----1--0---------00
21--01--0-01---------
---0-----0-2---0-0---
2--0--0------------0-
--11---00-----1-0----
-1--2--1------00--1--
-------2-----0-0-----
---1-001-------1---1-
--0-0--2--01------3-1
--1-------10--0-----2
-----------0-------11
-214---1-10--------1-
2--1--0-1---0-1-1----
------------------1--
------------0--00-0--
---1-00--------------
--00----0-------0---0

*** Life<FredkinCell> 24x16 ***

Generation = 0, Population = 69.
----00----------
0--0----0----0--
0---------------
-----------0-0--
-----0----------
-0--------------
-----00-0-------
---0-------0----
---------0------
-0-00-----0-----
-----00------0--
--0-------0-----
-------------0--
-0---0-----0--0-
-00---00--0--00-
-----00-0-----0-
------------0---
0-----0----0----
0-----0---------
------0----0----
--0--00-0-000--0
----0-00--------
---00--0-00-----
-0--0-------0---

Generation = 4, Population = 159.
-1---4--10------
4130---001--10-0
--2---1-1-------
---2---0-2-0----
-0--02----------
1---10--0-1--0--
011-342--30-00--
--0-------10-2-0
----------------
10----300--1----
-----2-30----010
0--3-31-2--1----
------------1--2
11-01203-2-0--21
-013-----3-2-2-1
-1--1-0--1113-2-
--0--01---1103-0
-1---11---12--20
-111--2--12--00-
-10-01031-0-1-00
111-0--10121-132
-0311-1-2-0-1---
----23--1220-00-
10--21-3---0----

*** Life<FredkinCell> 30x28 ***

Generation = 0, Population = 132.
----0------0---0-----------0
-0----0-0------------00-0-0-
-0--------------------0-----
--------------0-------------
---0---00-------------0--00-
------0-0-----------0-----0-
0--0--------------0----0---0
0-0-----0----0--00000------0
---------0---0------0---0---
--------0-----0-0-----------
------0--0-----000-00-00----
------0----0-0-0----------0-
-0---0-0---0----0--0--0-----
0-0------0---0------0-------
00------0---0---0----0-----0
------------------------00--
-0-0-0----------------------
----------0-00-0----0--0----
--------0--0-------------0-0
-------0---0----0-----0--0--
--------0-----------0-------
---0---0---0----------------
----------------------------
0--------------------------0
--0----00-0-00------0-------
---00-----------------------
0--0-0------0---------0----0
------------0-------------0-
-0-0-0------0---------0--0-0
----0-----------------0-----

*** Life<FredkinCell> 22x10 ***

Generation = 0, Population = 93.
0-00000000
0---0-0000
--0-------
--0-----0-
0-00---0-0
0--00---0-
0-0--0-000
0000-00---
-0-------0
-0-0-0----
00--------
-----0-0--
0-0---00--
0-00-00---
-0--0---00
0------0--
000000----
000-0-0-00
--------00
0-000--000
-0--0-000-
-0--0--0--

Generation = 2, Population = 114.
20--2022-0
2-0-21-2--
1----01-0-
1--00--0-0
200-00--00
---0--0-2-
01--0212--
0-2-0--0--
-000-0--1-
0-00-01---
-0-1--01-0
0110-012-0
2-2-01----
2102---01-
-00-001--2
21110---0-
-----201--
--0-2--0--
0-01-0--22
012-0-0-00
--0000----
12---10-0-

Generation = 4, Population = 109.
22---222-0
2----30---
1--11-----
-00201--0-
-0-----000
-000212-40
---0-2321-
2-4-2-1-00
-2-0--00-1
--0-0-1011
2------1--
--3--032--
--2--10---
-304-1-23-
----0--022
4----1--0-
22---401-0
1-2121----
-1---0-0-2
0140200--0
-2--2-2001
3----12101
